%YAML 1.1
%TAG !u! tag:unity3d.com,2011:
--- !u!114 &11400000
MonoBehaviour:
  m_ObjectHideFlags: 0
  m_CorrespondingSourceObject: {fileID: 0}
  m_PrefabInstance: {fileID: 0}
  m_PrefabAsset: {fileID: 0}
  m_GameObject: {fileID: 0}
  m_Enabled: 1
  m_EditorHideFlags: 0
  m_Script: {fileID: 11500000, guid: 9d1514134bc4fbd41bb739b1b9a49231, type: 3}
  m_Name: PowerPallet_Tile
  m_EditorClassIdentifier: 
  m_DefaultSprite: {fileID: 0}
  m_DefaultGameObject: {fileID: 6777882874969652455, guid: 2c6362d5f630854458c4602d6cbeb47c, type: 3}
  m_DefaultColliderType: 0
  m_TilingRules: []
